<define-tag pagetitle>DLA-1186-1 xorg-server</define-tag>
<define-tag report_date>2017-11-22</define-tag>
<define-tag secrefs>CVE-2017-2624 CVE-2017-12176 CVE-2017-12177 CVE-2017-12178 CVE-2017-12180 CVE-2017-12182 CVE-2017-12183 CVE-2017-12184 CVE-2017-12185 CVE-2017-12187 CVE-2017-13723</define-tag>
<define-tag packages>xorg-server</define-tag>
<define-tag isvulnerable>yes</define-tag>
<define-tag fixed>yes</define-tag>
<define-tag fixed-section>no</define-tag>

#use wml::debian::security

