<define-tag pagetitle>DLA-792-1 libphp-swiftmailer</define-tag>
<define-tag report_date>2017-1-19</define-tag>
<define-tag secrefs>CVE-2016-10074 Bug#849626</define-tag>
<define-tag packages>libphp-swiftmailer</define-tag>
<define-tag isvulnerable>yes</define-tag>
<define-tag fixed>yes</define-tag>
<define-tag fixed-section>no</define-tag>

#use wml::debian::security

