<define-tag pagetitle>DLA-909-1 libcroco</define-tag>
<define-tag report_date>2017-4-23</define-tag>
<define-tag secrefs>CVE-2017-7960 CVE-2017-7961 Bug#860961</define-tag>
<define-tag packages>libcroco</define-tag>
<define-tag isvulnerable>yes</define-tag>
<define-tag fixed>yes</define-tag>
<define-tag fixed-section>no</define-tag>

#use wml::debian::security

