<define-tag pagetitle>DLA-2467-1 lxml</define-tag>
<define-tag report_date>2020-11-27</define-tag>
<define-tag secrefs>CVE-2018-19787 CVE-2020-27783</define-tag>
<define-tag packages>lxml</define-tag>
<define-tag isvulnerable>yes</define-tag>
<define-tag fixed>yes</define-tag>
<define-tag fixed-section>no</define-tag>

#use wml::debian::security

