<define-tag pagetitle>DLA-1433-1 openjpeg2</define-tag>
<define-tag report_date>2018-7-19</define-tag>
<define-tag secrefs>CVE-2015-1239 CVE-2016-5139</define-tag>
<define-tag packages>openjpeg2</define-tag>
<define-tag isvulnerable>yes</define-tag>
<define-tag fixed>yes</define-tag>
<define-tag fixed-section>no</define-tag>

#use wml::debian::security

