<define-tag pagetitle>DLA-1536-1 php-horde-core</define-tag>
<define-tag report_date>2018-10-7</define-tag>
<define-tag secrefs>CVE-2017-16907 Bug#909800</define-tag>
<define-tag packages>php-horde-core</define-tag>
<define-tag isvulnerable>yes</define-tag>
<define-tag fixed>yes</define-tag>
<define-tag fixed-section>no</define-tag>

#use wml::debian::security

