<define-tag pagetitle>DSA-4492-1 postgresql-9.6</define-tag>
<define-tag report_date>2019-8-08</define-tag>
<define-tag secrefs>CVE-2019-10208</define-tag>
<define-tag packages>postgresql-9.6</define-tag>
<define-tag isvulnerable>yes</define-tag>
<define-tag fixed>yes</define-tag>
<define-tag fixed-section>no</define-tag>

#use wml::debian::security



</dl>
