<define-tag pagetitle>DSA-4534-1 golang-1.11</define-tag>
<define-tag report_date>2019-9-27</define-tag>
<define-tag secrefs>CVE-2019-16276</define-tag>
<define-tag packages>golang-1.11</define-tag>
<define-tag isvulnerable>yes</define-tag>
<define-tag fixed>yes</define-tag>
<define-tag fixed-section>no</define-tag>

#use wml::debian::security



</dl>
