<define-tag pagetitle>DLA-1783-1 atftp</define-tag>
<define-tag report_date>2019-5-12</define-tag>
<define-tag secrefs>CVE-2019-11365 CVE-2019-11366</define-tag>
<define-tag packages>atftp</define-tag>
<define-tag isvulnerable>yes</define-tag>
<define-tag fixed>yes</define-tag>
<define-tag fixed-section>no</define-tag>

#use wml::debian::security

