<define-tag pagetitle>DLA-1919-1 linux-4.9</define-tag>
<define-tag report_date>2019-09-14</define-tag>
<define-tag secrefs>CVE-2019-0136 CVE-2019-9506 CVE-2019-11487 CVE-2019-15211 CVE-2019-15212 CVE-2019-15215 CVE-2019-15216 CVE-2019-15218 CVE-2019-15219 CVE-2019-15220 CVE-2019-15221 CVE-2019-15292 CVE-2019-15538 CVE-2019-15666 CVE-2019-15807 CVE-2019-15924 CVE-2019-15926 Bug#930904</define-tag>
<define-tag packages>linux-4.9</define-tag>
<define-tag isvulnerable>yes</define-tag>
<define-tag fixed>yes</define-tag>
<define-tag fixed-section>no</define-tag>

#use wml::debian::security

