<define-tag pagetitle>DLA-1898-1 xymon</define-tag>
<define-tag report_date>2019-08-26</define-tag>
<define-tag secrefs>CVE-2019-13273 CVE-2019-13274 CVE-2019-13451 CVE-2019-13452 CVE-2019-13455 CVE-2019-13484 CVE-2019-13485 CVE-2019-13486</define-tag>
<define-tag packages>xymon</define-tag>
<define-tag isvulnerable>yes</define-tag>
<define-tag fixed>yes</define-tag>
<define-tag fixed-section>no</define-tag>

#use wml::debian::security

