<define-tag pagetitle>DLA-727-1 gst-plugins-good0.10</define-tag>
<define-tag report_date>2016-11-30</define-tag>
<define-tag secrefs>CVE-2016-9634 CVE-2016-9635 CVE-2016-9636</define-tag>
<define-tag packages>gst-plugins-good0.10</define-tag>
<define-tag isvulnerable>yes</define-tag>
<define-tag fixed>yes</define-tag>
<define-tag fixed-section>no</define-tag>

#use wml::debian::security

