<define-tag pagetitle>DLA-734-1 mapserver</define-tag>
<define-tag report_date>2016-12-7</define-tag>
<define-tag secrefs>CVE-2016-9839</define-tag>
<define-tag packages>mapserver</define-tag>
<define-tag isvulnerable>yes</define-tag>
<define-tag fixed>yes</define-tag>
<define-tag fixed-section>no</define-tag>

#use wml::debian::security

